<svg xmlns="http://www.w3.org/2000/svg" width="241" height="38">
  <defs>
    <linearGradient id="a" x1="50.1606536%" x2="86.1492104%" y1="50.1804095%" y2="95.6269811%">
      <stop offset="0%" stop-color="#FFF"/>
      <stop offset="100%" stop-color="#B3B3B3"/>
    </linearGradient>
    <linearGradient id="b" x1="40.9123324%" x2="22.70987%" y1="64.9078635%" y2="94.7782058%">
      <stop offset="0%" stop-color="#FFF"/>
      <stop offset="100%" stop-color="#B3B3B3"/>
    </linearGradient>
    <linearGradient id="c" x1="54.7038991%" x2="43.1245413%" y1="52.8691304%" y2="43.5826087%">
      <stop offset="0%" stop-color="#FFF" stop-opacity="0"/>
      <stop offset="36.23%" stop-color="#A7A7A7" stop-opacity=".4071"/>
      <stop offset="72.46%" stop-color="#545454" stop-opacity=".8142"/>
      <stop offset="88.99%" stop-color="#333"/>
    </linearGradient>
    <linearGradient id="d" x1="46.1509091%" x2="58.7854545%" y1="43.6315668%" y2="56.4410138%">
      <stop offset="0%" stop-color="#FFF" stop-opacity="0"/>
      <stop offset="36.23%" stop-color="#A7A7A7" stop-opacity=".4071"/>
      <stop offset="72.46%" stop-color="#545454" stop-opacity=".8142"/>
      <stop offset="88.99%" stop-color="#333"/>
    </linearGradient>
    <linearGradient id="e" x1="50.0516544%" x2="50.0516544%" y1="83.3326016%" y2="29.3611482%">
      <stop offset="0%" stop-color="#FFF"/>
      <stop offset="86.18%" stop-color="#B3B3B3"/>
      <stop offset="98.93%" stop-color="#B3B3B3"/>
    </linearGradient>
    <linearGradient id="f" x1="49.9584559%" x2="49.9584559%" y1="83.396229%" y2="29.3695767%">
      <stop offset="0%" stop-color="#FFF"/>
      <stop offset="100%" stop-color="#B3B3B3"/>
    </linearGradient>
  </defs>
  <g fill="none">
    <path fill="#FFF" d="M105.5952314 16.2401639l-4.9211781-8.58114751H85.6692847L81.399439 14.2909836l-4.24572231-6.63196721h-7.6230014l7.86423562 11.57622951-8.20196353 11.9803279h7.45413744l4.60757368-7.1073771 4.5834502 7.1073771h7.6230014l-8.2019636-12.0516394 7.8401122-11.50491801 9.0945302 14.73770491v8.8188525h6.6821879v-8.9139345l9.0945302-14.64262291h-7.430014zm30.0095372 3.8745902l-9.8423563-12.45573771h-6.175596V31.2155738h6.5615708V18.2844262l10.228331 12.9311476h5.8137447V7.65901639h-6.5856942zm21.6387097-13.09754099c-6.9475456 0-12.5924264 5.56229509-12.5924264 12.40819669 0 6.8459017 5.6448808 12.4081968 12.5924264 12.4081968 6.9475455 0 12.5924267-5.5622951 12.5924267-12.4081968 0-6.8459016-5.6207577-12.40819669-12.5924267-12.40819669zm0 18.77868849c-3.5702665 0-6.4650772-2.852459-6.4650772-6.3704918s2.8948107-6.3704918 6.4650772-6.3704918c3.5702664 0 6.4650771 2.852459 6.4650771 6.3704918s-2.8948107 6.3704918-6.4650771 6.3704918zm27.7901827-9.0090164l-5.717251-9.12786881h-6.995793V31.2155738h6.489201V17.7614754l6.079102 9.1516394h.144741l6.103225-9.2229509v13.5254099h6.609818V7.65901639h-7.019916zm48.608695-13.09754094h1.157925v2.99508197h.627208V3.68934426h1.157925v-.5704918h-2.943058zm6.658065-.5704918l-1.109678 1.68770492-1.085554-1.68770492h-.675455v3.56557377h.627208V4.14098361l1.133801 1.66393442 1.157925-1.68770492v2.56721312h.627209V3.11885246zm-40.093128 4.54016393h6.65806452v23.5803279H200.207293zm32.590743 0h-7.454137l-4.269846 6.63196721-4.245722-6.63196721h-7.623001l7.864235 11.57622951-8.201963 11.9803279h7.454137l4.607574-7.1073771 4.58345 7.1073771h7.623001l-8.201963-12.0516394z"/>
    <path fill="url(#a)" d="M8.33893805 1.76687898C11.4451327-.36305732 16.2238938-1.91210191 23.320354 5.47006369l7.2876106 7.60000001 11.8274336 12.4165605.3584071.3872612c10.4176991 10.0445859 11.1106195-1.1375797 11.1106195-1.1375797 0 4.889172-1.9592921 6.5108281-8.1955752 11.3515924-3.1061947 2.1299363-7.861062 3.6789809-14.9575222-3.7031847L20.9548673 22.122293l-9.2946903-9.778344-.3584071-.3872611C.860177 1.93630573.19115044 13.1184713.19115044 13.1184713.16725664 8.22929936 2.12654867 6.60764331 8.33893805 1.76687898z"/>
    <path fill="url(#b)" d="M45.7088496 1.76687898c-3.1061947-2.1299363-7.8849558-3.67898089-14.981416 3.70318471L23.439823 13.0700637 11.6123894 25.4866242l-.3584071.3872612C.83628319 35.9184713.14336283 24.7363057.14336283 24.7363057c0 4.889172 1.95929204 6.5108281 8.19557522 11.3515924C11.4451327 38.2178344 16.2 39.766879 23.2964602 32.3847134l9.7964602-10.2624204 9.318584-9.7541401.3584071-.3872612C53.1876106 1.93630573 53.880531 13.1184713 53.880531 13.1184713c.0238938-4.88917194-1.9592921-6.51082799-8.1716814-11.35159232z"/>
    <path fill="url(#c)" d="M36.1752212 18.9273885l-9.1513274 9.5363058 1.5053097 1.5974522 8.9123894-9.8025478z" opacity=".23"/>
    <path fill="url(#d)" d="M27.0238938 9.34267516l-9.1274336 9.58471334-1.3858407-1.5006369 9.6292035-9.00382166z" opacity=".23"/>
    <path fill="url(#e)" d="M11.2539823 25.8738854l.3584071-.3872612 1.5292035-1.5974522v-9.9477707l-1.5292035-1.5974523-.3584071-.3872611C.83628319 1.91210191.14336283 13.0942675.14336283 13.0942675v11.5936306c.0238938.0242038.71681416 11.2305732 11.11061947 1.1859873z"/>
    <path fill="url(#f)" d="M42.7938053 11.9566879l-.3584071.3872611-1.5292035 1.5974523v9.9235669l1.5292035 1.5974522.3584071.3872611c10.4176991 10.044586 11.1106195-1.1375796 11.1106195-1.1375796V13.0942675c0 .0242038-.6929204-11.18216559-11.1106195-1.1375796z"/>
  </g>
</svg>
