<?xml version="1.0" encoding="UTF-8"?>
<svg width="122px" height="181px" viewBox="0 0 122 181" version="1.1" xmlns="http://www.w3.org/2000/svg" xmlns:xlink="http://www.w3.org/1999/xlink">
    <!-- Generator: Sketch 50.2 (55047) - http://www.bohemiancoding.com/sketch -->
    <title>Group 7</title>
    <desc>Created with Sketch.</desc>
    <defs>
        <linearGradient x1="14.7185%" y1="14.5635%" x2="85.4295%" y2="85.2745%" id="linearGradient-1">
            <stop stop-color="#FC2251" offset="0%"></stop>
            <stop stop-color="#FC2251" stop-opacity="0" offset="100%"></stop>
        </linearGradient>
    </defs>
    <g id="Page-1" stroke="none" stroke-width="1" fill="none" fill-rule="evenodd">
        <g id="Desktop-–-Contact-us" transform="translate(-1274.000000, -653.000000)">
            <g id="Group-7" transform="translate(1276.000000, 653.000000)">
                <circle id="Oval" fill="url(#linearGradient-1)" fill-rule="nonzero" opacity="0.7" cx="93.5" cy="53.5" r="26.5"></circle>
                <rect id="Rectangle-path" stroke="#FC2251" stroke-width="2.5" x="7" y="109" width="96" height="56"></rect>
                <path d="M20.6153846,154 L31.3846154,154 C32.1923077,154 33,153.238806 33,152.477612 L33,121.522388 C33,120.761194 32.1923077,120 31.3846154,120 L20.6153846,120 C19.8076923,120 19,120.761194 19,121.522388 L19,152.731343 C19,153.238806 19.8076923,154 20.6153846,154 Z" id="Shape" stroke="#FC2251" stroke-width="2.5"></path>
                <path d="M16.7594937,109 L35.2405063,109 C35.7468354,109 36,109.261905 36,109.785714 L36,119.214286 C36,119.738095 35.7468354,120 35.2405063,120 L16.7594937,120 C16.2531646,120 16,119.738095 16,119.214286 L16,109.785714 C16,109.261905 16.2531646,109 16.7594937,109 Z" id="Shape" stroke="#FC2251" stroke-width="2.5"></path>
                <path d="M16.7594937,154 L35.2405063,154 C35.7468354,154 36,154.261905 36,154.785714 L36,164.214286 C36,164.738095 35.7468354,165 35.2405063,165 L16.7594937,165 C16.2531646,165 16,164.738095 16,164.214286 L16,154.785714 C16,154.261905 16.2531646,154 16.7594937,154 Z" id="Shape" stroke="#FC2251" stroke-width="2.5"></path>
                <path d="M78.6153846,154 L89.3846154,154 C90.1923077,154 91,153.238806 91,152.477612 L91,121.522388 C91,120.761194 90.1923077,120 89.3846154,120 L78.6153846,120 C77.8076923,120 77,120.761194 77,121.522388 L77,152.731343 C77,153.238806 77.8076923,154 78.6153846,154 Z" id="Shape" stroke="#FC2251" stroke-width="2.5"></path>
                <path d="M74.7594937,109 L93.2405063,109 C93.7468354,109 94,109.261905 94,109.785714 L94,119.214286 C94,119.738095 93.7468354,120 93.2405063,120 L74.7594937,120 C74.2531646,120 74,119.738095 74,119.214286 L74,109.785714 C74,109.261905 74.2531646,109 74.7594937,109 Z" id="Shape" stroke="#FC2251" stroke-width="2.5"></path>
                <path d="M74.7594937,154 L93.2405063,154 C93.7468354,154 94,154.261905 94,154.785714 L94,164.214286 C94,164.738095 93.7468354,165 93.2405063,165 L74.7594937,165 C74.2531646,165 74,164.738095 74,164.214286 L74,154.785714 C74,154.261905 74.2531646,154 74.7594937,154 Z" id="Shape" stroke="#FC2251" stroke-width="2.5"></path>
                <path d="M49.6153846,154 L60.3846154,154 C61.1923077,154 62,153.238806 62,152.477612 L62,121.522388 C62,120.761194 61.1923077,120 60.3846154,120 L49.6153846,120 C48.8076923,120 48,120.761194 48,121.522388 L48,152.731343 C48,153.238806 48.8076923,154 49.6153846,154 Z" id="Shape" stroke="#FC2251" stroke-width="2.5"></path>
                <path d="M45.7594937,109 L64.2405063,109 C64.7468354,109 65,109.261905 65,109.785714 L65,119.214286 C65,119.738095 64.7468354,120 64.2405063,120 L45.7594937,120 C45.2531646,120 45,119.738095 45,119.214286 L45,109.785714 C45,109.261905 45.2531646,109 45.7594937,109 Z" id="Shape" stroke="#FC2251" stroke-width="2.5"></path>
                <path d="M45.7594937,154 L64.2405063,154 C64.7468354,154 65,154.261905 65,154.785714 L65,164.214286 C65,164.738095 64.7468354,165 64.2405063,165 L45.7594937,165 C45.2531646,165 45,164.738095 45,164.214286 L45,154.785714 C45,154.261905 45.2531646,154 45.7594937,154 Z" id="Shape" stroke="#FC2251" stroke-width="2.5"></path>
                <rect id="Rectangle-path" stroke="#FC2251" stroke-width="2.5" x="0" y="95" width="108" height="14"></rect>
                <rect id="Rectangle-path" stroke="#FC2251" stroke-width="2.5" x="0" y="165" width="108" height="14"></rect>
                <path d="M103,84.4273128 C103,57.2026432 80.9893048,35 54,35 C27.0106952,35 5,57.2026432 5,84.4273128 L5,95 L103,95 L103,84.4273128 Z" id="Shape" stroke="#FC2251" stroke-width="2.5"></path>
                <path d="M55,13 L55,0" id="Shape" stroke="#FC2251" stroke-width="2.5"></path>
                <polyline id="Shape" stroke="#FC2251" stroke-width="2.5" points="59 24 59 12 51 12 51 24"></polyline>
                <polyline id="Shape" stroke="#FC2251" stroke-width="2.5" points="63 35 63 23 47 23 47 35"></polyline>
            </g>
        </g>
    </g>
</svg>