<?xml version="1.0" encoding="UTF-8"?>
<svg width="176px" height="145px" viewBox="0 0 176 145" version="1.1" xmlns="http://www.w3.org/2000/svg" xmlns:xlink="http://www.w3.org/1999/xlink">
    <!-- Generator: Sketch 50.2 (55047) - http://www.bohemiancoding.com/sketch -->
    <title>Group 39</title>
    <desc>Created with Sketch.</desc>
    <defs>
        <linearGradient x1="-0.139383562%" y1="49.8811644%" x2="99.8311644%" y2="49.8811644%" id="linearGradient-1">
            <stop stop-color="#FC2251" offset="0%"></stop>
            <stop stop-color="#FC2251" stop-opacity="0" offset="100%"></stop>
        </linearGradient>
    </defs>
    <g id="Page-1" stroke="none" stroke-width="1" fill="none" fill-rule="evenodd">
        <g id="Desktop-–-Contact-us" transform="translate(-867.000000, -1133.000000)">
            <g id="Group-39" transform="translate(867.000000, 1135.000000)">
                <polygon id="Shape" stroke="#FC2251" stroke-width="2.5" points="90 109 76 115 83.7777778 123"></polygon>
                <path d="M71,131 L81,120" id="Shape" stroke="#FC2251" stroke-width="2.5"></path>
                <circle id="Oval" stroke="#FC2251" stroke-width="2" cx="141" cy="50" r="2"></circle>
                <circle id="Oval" stroke="#FC2251" stroke-width="2" cx="151" cy="50" r="2"></circle>
                <circle id="Oval" stroke="#FC2251" stroke-width="2" cx="161" cy="50" r="2"></circle>
                <path d="M164.469613,141 L68.3186004,141 C63.2357274,141 59,136.714286 59,131.571429 L59,51.4285714 C59,46.2857143 63.2357274,42 68.3186004,42 L164.6814,42 C169.764273,42 174,46.2857143 174,51.4285714 L174,131.785714 C173.788214,136.928571 169.764273,141 164.469613,141 Z" id="Shape" stroke="#FC2251" stroke-width="2.5"></path>
                <path d="M59,58 L174,58" id="Shape" stroke="#FC2251" stroke-width="2.5"></path>
                <circle id="Oval" stroke="#FC2251" stroke-width="2.5" fill="#FFFFFF" fill-rule="nonzero" cx="46.5" cy="31.5" r="31.5"></circle>
                <circle id="Oval" fill="url(#linearGradient-1)" fill-rule="nonzero" opacity="0.7" cx="31.5" cy="48.5" r="31.5"></circle>
                <path d="M45,15 L45,47" id="Shape" stroke="#FC2251" stroke-width="2.5"></path>
                <path d="M62,31 L30,31" id="Shape" stroke="#FC2251" stroke-width="2.5"></path>
            </g>
        </g>
    </g>
</svg>